interactive_map
…
df_stops_joined_distance <- transit_stops %>% 
  st_join(commute_centroids, st_is_within_distance, dist = 700, left = TRUE) %>% 
  arrange(route_id)

df_stops_joined_distance

## Simple feature collection with 12087 features and 9 fields
## geometry type:  POINT
## dimension:      XY
## bbox:           xmin: -80 ymin: 40 xmax: -80 ymax: 41
## epsg (SRID):    4326
## proj4string:    +proj=longlat +datum=WGS84 +no_defs
## # A tibble: 12,087 x 10
##    stop_name routes_cou                  geometry route_number route_id
##    <chr>          <dbl>               <POINT []> <chr>        <chr>   
##  1 WEST MIF~          4                  (-80 40) route_2      ""      
##  2 LAYOVER ~         12                  (-80 40) route_2      ""      
##  3 LAYOVER ~         12                  (-80 40) route_6      ""      
##  4 LAYOVER ~         12                  (-80 40) route_8      ""      
##  5 LAYOVER ~         12                  (-80 40) route_11     ""      
##  6 4TH AVE ~          1                  (-80 41) route_1      "1"     
##  7 E 4TH AV~          2                  (-80 41) route_1      "1"     
##  8 4TH AVE ~          1                  (-80 41) route_1      "1"     
##  9 E 4TH AV~          2                  (-80 41) route_1      "1"     
## 10 E 4TH AV~          2                  (-80 41) route_1      "1"     
## # ... with 12,077 more rows, and 5 more variables: service_type <chr>,
## #   GEOID <chr>, NAME <chr>, total_pop <dbl>, name <chr>

df_stops_joined_distance <- df_stops_joined_distance %>% 
  filter(!is.na(name))

df_stops_joined_distance

## Simple feature collection with 736 features and 9 fields
## geometry type:  POINT
## dimension:      XY
## bbox:           xmin: -80 ymin: 40 xmax: -80 ymax: 40
## epsg (SRID):    4326
## proj4string:    +proj=longlat +datum=WGS84 +no_defs
## # A tibble: 736 x 10
##    stop_name routes_cou                  geometry route_number route_id
##  * <chr>          <dbl>               <POINT []> <chr>        <chr>   
##  1 7TH ST A~          9                  (-80 40) route_1      1       
##  2 7TH ST A~          4                  (-80 40) route_1      1       
##  3 LIBERTY ~          8                  (-80 40) route_1      1       
##  4 LIBERTY ~         19                  (-80 40) route_1      1       
##  5 LIBERTY ~         18                  (-80 40) route_1      1       
##  6 LIBERTY ~         20                  (-80 40) route_1      1       
##  7 LIBERTY ~          8                  (-80 40) route_1      1       
##  8 7TH ST A~          9                  (-80 40) route_2      11      
##  9 7TH ST A~          4                  (-80 40) route_2      11      
## 10 LIBERTY ~          8                  (-80 40) route_2      11      
## # ... with 726 more rows, and 5 more variables: service_type <chr>,
## #   GEOID <chr>, NAME <chr>, total_pop <dbl>, name <chr>

df_route_filter <- df_stops_joined_distance %>% 
  st_drop_geometry() %>% 
  distinct(route_id, name) %>% 
  group_by(route_id) %>% 
  filter(n() >= 2) %>% 
  ungroup() %>% 
  distinct(route_id)

df_route_filter

## # A tibble: 22 x 1
##    route_id
##    <chr>   
##  1 28X     
##  2 67      
##  3 69      
##  4 71A     
##  5 71B     
##  6 71C     
##  7 71D     
##  8 82      
##  9 86      
## 10 P1      
## # ... with 12 more rows

df_stops_joined_distance <- df_stops_joined_distance %>% 
  semi_join(df_route_filter, by = c("route_id" = "route_id"))

df_stops_joined_distance

## Simple feature collection with 266 features and 9 fields
## geometry type:  POINT
## dimension:      XY
## bbox:           xmin: -80 ymin: 40 xmax: -80 ymax: 40
## epsg (SRID):    4326
## proj4string:    +proj=longlat +datum=WGS84 +no_defs
## # A tibble: 266 x 10
##    stop_name routes_cou                  geometry route_number route_id
##    <chr>          <dbl>               <POINT []> <chr>        <chr>   
##  1 FIFTH AV~          3                  (-80 40) route_1      28X     
##  2 FIFTH AV~          3                  (-80 40) route_1      28X     
##  3 FIFTH AV~          3                  (-80 40) route_1      28X     
##  4 FIFTH AV~          4                  (-80 40) route_1      28X     
##  5 FIFTH AV~          3                  (-80 40) route_1      28X     
##  6 FIFTH AV~          3                  (-80 40) route_1      28X     
##  7 FIFTH AV~          3                  (-80 40) route_1      28X     
##  8 FIFTH AV~          3                  (-80 40) route_1      28X     
##  9 FIFTH AV~          3                  (-80 40) route_1      28X     
## 10 FIFTH AV~          4                  (-80 40) route_1      28X     
## # ... with 256 more rows, and 5 more variables: service_type <chr>,
## #   GEOID <chr>, NAME <chr>, total_pop <dbl>, name <chr>
…
